{
  "experiments": [
     {
        "experiment_key": "digits_android_intl_u2_1931",
        "version": 4,
        "experiment_type": "all",
        "buckets": [{
            "name": "control",
            "value": 400
        }, {
            "name": "uncheck_follows",
            "value": 400
        }, {
            "name": "precheck_follows",
            "value": 8400
        }, {
            "name": "uncheck_fallback",
            "value": 400
        }, {
            "name": "precheck_fallback",
            "value": 400
        }]
    },
    {
      "experiment_key": "android_suppress_mt_1987",
      "version": 3,
      "experiment_type": "all",
      "buckets": [
        {
          "name": "control",
          "value": 2000
        },
        {
          "name": "suppress",
          "value": 2000
        }
      ]
    },
    {
       "experiment_key": "android_instant_signup_1945",
       "version": 10,
       "experiment_type": "all",
       "buckets": [
           {
               "name": "control",
               "value": 100
           },
           {
               "name": "enabled",
               "value": 9900
           }
       ]
    },
    {
      "version": 2,
      "experiment_type": "all",
      "buckets": [
        {
          "name": "control",
          "value": 200
        },
        {
          "name": "highline_nav",
          "value": 200
        },
        {
          "name": "highline_nav_fixed",
          "value": 200
        }
      ],
      "experiment_key": "android_highline_speakeasy1_1703"
    },
    {
      "version": 2,
      "experiment_type": "all",
      "buckets": [
        {
          "name": "control",
          "value": 1000
        },
        {
          "name": "prefill_highlight_username",
          "value": 300
        },
        {
          "name": "prefill_select_password",
          "value": 300
        }
      ],
      "experiment_key": "prefill_signin_email_qster3_1640"
    },
    {
      "version": 7,
      "experiment_type": "all",
      "buckets": [
        {
          "name": "control",
          "value": 70
        },
        {
          "name": "star_icon_default_notif",
          "value": 70
        },
        {
          "name": "star_icon_no_notif",
          "value": 70
        },
        {
          "name": "heart_icon_default_notif",
          "value": 70
        },
        {
          "name": "heart_icon_no_notif",
          "value": 70
        },
        {
          "name": "smiley_icon_default_notif",
          "value": 70
        },
        {
          "name": "smiley_icon_no_notif",
          "value": 70
        }
      ],
      "experiment_key": "android_favorite_people_timeline_u4_1989"
    },
    {
      "version": 2,
      "experiment_type": "all",
      "buckets": [
        {
          "name": "control",
          "value": 1000
        },
        {
          "name": "bucket2",
          "value": 1000
        },
        {
          "name": "bucket3",
          "value": 100
        },
        {
          "name": "bucket4",
          "value": 5000
        }
      ],
      "experiment_key": "android_quality_control_experiment_1296"
    },
    {
      "version": 2,
      "experiment_type": "logged_in",
      "buckets": [
        {
          "name": "control",
          "value": 50
        },
        {
          "name": "double_tap_default",
          "value": 50
        },
        {
          "name": "double_tap_long_pause",
          "value": 50
        }
      ],
      "experiment_key": "android_double_tap_favorite_qster3_1650"
    },
    {
      "version": 6,
      "experiment_type": "logged_in",
      "buckets": [
        {
          "name": "control",
          "value": 100
        },
        {
          "name": "android_media_first",
          "value": 100
        }
      ],
      "experiment_key": "android_media_first_tweet_composer_1491"
    },
    {
      "version": 10,
      "experiment_type": "all",
      "buckets": [
        {
          "name": "control",
          "value": 500
        },
        {
          "name": "enabled",
          "value": 500
        }
      ],
      "experiment_key": "android_logged_out_carousel_1720"
    },
    {
      "version": 10,
      "experiment_type": "all",
      "buckets": [
        {
          "name": "control",
          "value": 1000
        },
        {
          "name": "enabled",
          "value": 1000
        },
        {
          "name": "enabled_and_prefill_email",
          "value": 1000
        }
      ],
      "experiment_key": "android_one_factor_signin_1978"
    },
    {
      "version": 3,
      "experiment_type": "logged_in",
      "buckets": [
        {
          "name": "control",
          "value": 500
        },
        {
          "name": "hide_button",
          "value": 500
        }
      ],
      "experiment_key": "android_spen_button_display_1813"
    },
    {
      "version": 4,
      "experiment_type": "all",
      "buckets": [
        {
          "name": "control",
          "value": 5000
        },
        {
          "name": "signed_out_enhancement_bucket",
          "value": 5000
        }
      ],
      "experiment_key": "android_signed_out_1960"
    },
    {
      "experiment_key": "day_dream_service_2052",
      "version": 1,
      "experiment_type": "all",
      "buckets": [
        {
          "name": "control",
          "value": 5000
        },
        {
          "name": "dreamers",
          "value": 5000
        }
      ]
    },
    {
      "experiment_key": "android_tablet_combined_navbar_2040",
      "version": 1,
      "experiment_type": "logged_in",
      "buckets": [
        {
          "name": "control",
          "value": 1000
        },
        {
          "name": "combined_navbar_width_600dp",
          "value": 1000
        },
        {
          "name": "combined_navbar_width_720dp",
          "value": 1000
        }
      ]
    }
  ]
}
